<?xml version="1.0" encoding="UTF-8"?>
<svg xmlns="http://www.w3.org/2000/svg" xmlns:xlink="http://www.w3.org/1999/xlink" width="504" height="360" viewBox="0 0 504 360">
<defs>
<g>
<g id="glyph-0-0">
<path d="M 0 -10.671875 L 7.796875 -10.671875 L 7.796875 0 L 0 0 Z M 5.78125 -9.359375 L 2 -9.359375 L 3.890625 -6.515625 Z M 6.484375 -2.65625 L 6.484375 -8.03125 L 4.6875 -5.34375 Z M 5.78125 -1.3125 L 3.890625 -4.15625 L 2 -1.3125 Z M 1.3125 -2.65625 L 3.109375 -5.34375 L 1.3125 -8.03125 Z M 1.3125 -2.65625 "/>
</g>
<g id="glyph-0-1">
<path d="M 5.484375 -6.140625 C 5.828125 -6.140625 6.140625 -6.175781 6.421875 -6.25 C 6.703125 -6.320312 6.9375 -6.425781 7.125 -6.5625 C 7.320312 -6.707031 7.476562 -6.890625 7.59375 -7.109375 C 7.707031 -7.328125 7.765625 -7.59375 7.765625 -7.90625 C 7.765625 -8.238281 7.707031 -8.503906 7.59375 -8.703125 C 7.476562 -8.910156 7.320312 -9.070312 7.125 -9.1875 C 6.925781 -9.3125 6.6875 -9.398438 6.40625 -9.453125 C 6.132812 -9.503906 5.847656 -9.53125 5.546875 -9.53125 L 2.71875 -9.53125 L 2.71875 -6.140625 Z M 2.71875 -4.703125 L 2.71875 0 L 1.15625 0 L 1.15625 -10.96875 L 5.515625 -10.96875 C 6.710938 -10.96875 7.648438 -10.726562 8.328125 -10.25 C 9.003906 -9.78125 9.34375 -9.015625 9.34375 -7.953125 C 9.34375 -7.234375 9.191406 -6.65625 8.890625 -6.21875 C 8.597656 -5.789062 8.257812 -5.53125 7.875 -5.4375 C 7.945312 -5.476562 8.082031 -5.378906 8.28125 -5.140625 C 8.488281 -4.910156 8.640625 -4.648438 8.734375 -4.359375 C 8.835938 -4.078125 8.898438 -3.78125 8.921875 -3.46875 C 8.953125 -3.164062 8.972656 -2.882812 8.984375 -2.625 C 8.992188 -2.226562 9.007812 -1.90625 9.03125 -1.65625 C 9.050781 -1.40625 9.078125 -1.207031 9.109375 -1.0625 C 9.140625 -0.914062 9.171875 -0.8125 9.203125 -0.75 C 9.234375 -0.6875 9.300781 -0.613281 9.40625 -0.53125 L 9.40625 0 L 7.859375 0 C 7.679688 -0.3125 7.566406 -0.628906 7.515625 -0.953125 C 7.472656 -1.285156 7.4375 -1.617188 7.40625 -1.953125 C 7.382812 -2.296875 7.363281 -2.625 7.34375 -2.9375 C 7.332031 -3.25 7.3125 -3.492188 7.28125 -3.671875 C 7.226562 -3.910156 7.148438 -4.09375 7.046875 -4.21875 C 6.953125 -4.351562 6.832031 -4.453125 6.6875 -4.515625 C 6.539062 -4.585938 6.363281 -4.632812 6.15625 -4.65625 C 5.957031 -4.6875 5.742188 -4.703125 5.515625 -4.703125 Z M 2.71875 -4.703125 "/>
</g>
<g id="glyph-0-2">
<path d="M 0.078125 0 L 4.390625 -10.96875 L 5.90625 -10.96875 L 10.109375 0 L 8.46875 0 L 7.265625 -3.25 L 2.953125 -3.25 L 1.71875 0 Z M 3.5 -4.6875 L 6.71875 -4.6875 L 5.109375 -8.984375 Z M 3.5 -4.6875 "/>
</g>
<g id="glyph-0-3">
<path d="M 9.625 -1.703125 L 9.609375 -1.703125 L 11.65625 -10.96875 L 13.296875 -10.96875 L 10.40625 0 L 8.859375 0 L 6.671875 -9.4375 L 6.6875 -9.4375 L 4.5 0 L 2.9375 0 L 0.109375 -10.96875 L 1.71875 -10.96875 L 3.734375 -1.703125 L 3.71875 -1.703125 L 5.90625 -10.96875 L 7.46875 -10.96875 Z M 9.625 -1.703125 "/>
</g>
<g id="glyph-0-4">
<path d="M 6.4375 -4.84375 C 6.4375 -4.976562 6.390625 -5.191406 6.296875 -5.484375 C 6.210938 -5.773438 6.082031 -6.019531 5.90625 -6.21875 C 5.738281 -6.425781 5.523438 -6.585938 5.265625 -6.703125 C 5.015625 -6.828125 4.71875 -6.890625 4.375 -6.890625 C 4.03125 -6.890625 3.734375 -6.828125 3.484375 -6.703125 C 3.234375 -6.578125 3.015625 -6.40625 2.828125 -6.1875 C 2.640625 -5.976562 2.488281 -5.726562 2.375 -5.4375 C 2.269531 -5.144531 2.207031 -4.945312 2.1875 -4.84375 Z M 2.15625 -3.53125 C 2.15625 -3.351562 2.203125 -3.097656 2.296875 -2.765625 C 2.398438 -2.441406 2.539062 -2.160156 2.71875 -1.921875 C 2.894531 -1.691406 3.117188 -1.507812 3.390625 -1.375 C 3.671875 -1.238281 4 -1.171875 4.375 -1.171875 C 4.875 -1.171875 5.296875 -1.296875 5.640625 -1.546875 C 5.992188 -1.804688 6.25 -2.253906 6.40625 -2.890625 L 7.984375 -2.890625 C 7.804688 -2.253906 7.625 -1.769531 7.4375 -1.4375 C 7.25 -1.113281 7.007812 -0.828125 6.71875 -0.578125 C 6.4375 -0.328125 6.097656 -0.132812 5.703125 0 C 5.316406 0.132812 4.875 0.203125 4.375 0.203125 C 3.738281 0.203125 3.179688 0.09375 2.703125 -0.125 C 2.234375 -0.351562 1.84375 -0.65625 1.53125 -1.03125 C 1.226562 -1.414062 1.003906 -1.859375 0.859375 -2.359375 C 0.710938 -2.867188 0.640625 -3.414062 0.640625 -4 C 0.640625 -4.582031 0.722656 -5.128906 0.890625 -5.640625 C 1.066406 -6.148438 1.3125 -6.597656 1.625 -6.984375 C 1.945312 -7.378906 2.335938 -7.691406 2.796875 -7.921875 C 3.265625 -8.148438 3.789062 -8.265625 4.375 -8.265625 C 5.5 -8.265625 6.378906 -7.878906 7.015625 -7.109375 C 7.648438 -6.335938 7.960938 -5.144531 7.953125 -3.53125 Z M 2.15625 -3.53125 "/>
</g>
<g id="glyph-0-5">
<path d="M 2.59375 -4 C 2.59375 -3.601562 2.644531 -3.234375 2.75 -2.890625 C 2.851562 -2.546875 3.003906 -2.242188 3.203125 -1.984375 C 3.398438 -1.734375 3.632812 -1.535156 3.90625 -1.390625 C 4.175781 -1.242188 4.484375 -1.171875 4.828125 -1.171875 C 5.210938 -1.171875 5.550781 -1.25 5.84375 -1.40625 C 6.132812 -1.5625 6.367188 -1.773438 6.546875 -2.046875 C 6.734375 -2.316406 6.875 -2.640625 6.96875 -3.015625 C 7.0625 -3.390625 7.097656 -3.804688 7.078125 -4.265625 C 7.078125 -4.703125 7.015625 -5.082031 6.890625 -5.40625 C 6.773438 -5.726562 6.617188 -6 6.421875 -6.21875 C 6.222656 -6.4375 5.988281 -6.601562 5.71875 -6.71875 C 5.445312 -6.832031 5.148438 -6.890625 4.828125 -6.890625 C 4.472656 -6.890625 4.15625 -6.816406 3.875 -6.671875 C 3.601562 -6.523438 3.367188 -6.328125 3.171875 -6.078125 C 2.984375 -5.828125 2.835938 -5.519531 2.734375 -5.15625 C 2.640625 -4.800781 2.59375 -4.414062 2.59375 -4 Z M 2.59375 2.9375 L 1.140625 2.9375 L 1.140625 -8.0625 L 2.59375 -8.0625 L 2.328125 -6.484375 L 2.296875 -6.5 C 2.285156 -6.820312 2.390625 -7.085938 2.609375 -7.296875 C 2.828125 -7.515625 3.0625 -7.691406 3.3125 -7.828125 C 3.570312 -7.972656 3.835938 -8.082031 4.109375 -8.15625 C 4.378906 -8.226562 4.648438 -8.265625 4.921875 -8.265625 C 5.566406 -8.265625 6.117188 -8.148438 6.578125 -7.921875 C 7.046875 -7.703125 7.429688 -7.398438 7.734375 -7.015625 C 8.035156 -6.628906 8.253906 -6.175781 8.390625 -5.65625 C 8.523438 -5.144531 8.59375 -4.609375 8.59375 -4.046875 C 8.59375 -3.492188 8.519531 -2.960938 8.375 -2.453125 C 8.226562 -1.941406 8.003906 -1.488281 7.703125 -1.09375 C 7.410156 -0.707031 7.035156 -0.394531 6.578125 -0.15625 C 6.117188 0.0820312 5.582031 0.203125 4.96875 0.203125 C 4.394531 0.203125 3.84375 0.078125 3.3125 -0.171875 C 2.78125 -0.429688 2.515625 -0.601562 2.515625 -0.6875 Z M 2.59375 2.9375 "/>
</g>
<g id="glyph-0-6">
<path d="M 5.921875 -3.765625 C 5.804688 -3.710938 5.550781 -3.660156 5.15625 -3.609375 C 4.769531 -3.566406 4.390625 -3.53125 4.015625 -3.5 C 3.390625 -3.445312 2.925781 -3.316406 2.625 -3.109375 C 2.320312 -2.910156 2.171875 -2.613281 2.171875 -2.21875 C 2.171875 -2.03125 2.207031 -1.875 2.28125 -1.75 C 2.351562 -1.625 2.445312 -1.515625 2.5625 -1.421875 C 2.675781 -1.335938 2.816406 -1.273438 2.984375 -1.234375 C 3.148438 -1.191406 3.320312 -1.171875 3.5 -1.171875 C 3.820312 -1.171875 4.128906 -1.207031 4.421875 -1.28125 C 4.722656 -1.363281 4.984375 -1.484375 5.203125 -1.640625 C 5.421875 -1.796875 5.59375 -1.988281 5.71875 -2.21875 C 5.851562 -2.445312 5.921875 -2.722656 5.921875 -3.046875 Z M 4.734375 -4.9375 C 4.878906 -4.957031 5.054688 -4.984375 5.265625 -5.015625 C 5.484375 -5.054688 5.65625 -5.101562 5.78125 -5.15625 C 5.820312 -5.1875 5.851562 -5.25 5.875 -5.34375 C 5.90625 -5.445312 5.921875 -5.554688 5.921875 -5.671875 C 5.921875 -6.023438 5.804688 -6.316406 5.578125 -6.546875 C 5.359375 -6.773438 4.953125 -6.890625 4.359375 -6.890625 C 4.078125 -6.890625 3.828125 -6.863281 3.609375 -6.8125 C 3.390625 -6.769531 3.203125 -6.695312 3.046875 -6.59375 C 2.898438 -6.488281 2.773438 -6.34375 2.671875 -6.15625 C 2.578125 -5.976562 2.503906 -5.660156 2.453125 -5.203125 L 1 -5.203125 C 1.03125 -5.890625 1.140625 -6.410156 1.328125 -6.765625 C 1.523438 -7.117188 1.78125 -7.40625 2.09375 -7.625 C 2.40625 -7.84375 2.753906 -8.003906 3.140625 -8.109375 C 3.535156 -8.210938 3.945312 -8.265625 4.375 -8.265625 C 4.769531 -8.265625 5.148438 -8.21875 5.515625 -8.125 C 5.878906 -8.039062 6.203125 -7.894531 6.484375 -7.6875 C 6.765625 -7.476562 6.984375 -7.203125 7.140625 -6.859375 C 7.296875 -6.523438 7.375 -6.117188 7.375 -5.640625 L 7.375 -1.578125 C 7.375 -1.335938 7.390625 -1.203125 7.421875 -1.171875 C 7.460938 -1.148438 7.75 -1.234375 8.28125 -1.421875 L 8.28125 -0.109375 C 8.082031 -0.046875 7.910156 0.00390625 7.765625 0.046875 C 7.617188 0.0859375 7.46875 0.109375 7.3125 0.109375 C 7.15625 0.109375 7.007812 0.0976562 6.875 0.078125 C 6.675781 0.046875 6.515625 -0.0195312 6.390625 -0.125 C 6.273438 -0.226562 6.179688 -0.34375 6.109375 -0.46875 C 6.046875 -0.601562 6 -0.738281 5.96875 -0.875 C 5.945312 -1.019531 6.007812 -1.101562 6.15625 -1.125 C 5.957031 -0.695312 5.601562 -0.367188 5.09375 -0.140625 C 4.582031 0.0859375 4.035156 0.203125 3.453125 0.203125 C 3.097656 0.203125 2.75 0.148438 2.40625 0.046875 C 2.070312 -0.046875 1.773438 -0.195312 1.515625 -0.40625 C 1.253906 -0.613281 1.046875 -0.863281 0.890625 -1.15625 C 0.734375 -1.457031 0.65625 -1.816406 0.65625 -2.234375 C 0.65625 -3.679688 1.613281 -4.53125 3.53125 -4.78125 Z M 4.734375 -4.9375 "/>
</g>
<g id="glyph-0-7">
<path d="M 1.171875 0 L 1.171875 -8.0625 L 2.625 -8.0625 L 2.625 0 Z M 1.125 -9.09375 L 1.125 -10.96875 L 2.671875 -10.96875 L 2.671875 -9.09375 Z M 1.125 -9.09375 "/>
</g>
<g id="glyph-0-8">
<path d="M 2.53125 0 L 1.078125 0 L 1.078125 -8.0625 L 2.53125 -8.0625 L 2.265625 -6.390625 L 2.234375 -6.40625 C 2.335938 -7.101562 2.601562 -7.585938 3.03125 -7.859375 C 3.46875 -8.128906 4.125 -8.265625 5 -8.265625 L 5 -6.734375 C 4.363281 -6.734375 3.90625 -6.660156 3.625 -6.515625 C 3.351562 -6.378906 3.132812 -6.191406 2.96875 -5.953125 C 2.8125 -5.722656 2.695312 -5.429688 2.625 -5.078125 C 2.5625 -4.722656 2.53125 -4.347656 2.53125 -3.953125 Z M 2.53125 0 "/>
</g>
<g id="glyph-0-9">
<path d="M 6.796875 -4.0625 C 6.796875 -4.445312 6.742188 -4.8125 6.640625 -5.15625 C 6.535156 -5.507812 6.382812 -5.8125 6.1875 -6.0625 C 6 -6.3125 5.769531 -6.507812 5.5 -6.65625 C 5.226562 -6.8125 4.921875 -6.890625 4.578125 -6.890625 C 4.171875 -6.890625 3.828125 -6.8125 3.546875 -6.65625 C 3.265625 -6.5 3.03125 -6.285156 2.84375 -6.015625 C 2.65625 -5.742188 2.515625 -5.414062 2.421875 -5.03125 C 2.335938 -4.65625 2.304688 -4.242188 2.328125 -3.796875 C 2.328125 -3.359375 2.382812 -2.976562 2.5 -2.65625 C 2.625 -2.332031 2.785156 -2.0625 2.984375 -1.84375 C 3.179688 -1.625 3.414062 -1.457031 3.6875 -1.34375 C 3.957031 -1.226562 4.253906 -1.171875 4.578125 -1.171875 C 4.929688 -1.171875 5.242188 -1.238281 5.515625 -1.375 C 5.785156 -1.519531 6.015625 -1.71875 6.203125 -1.96875 C 6.398438 -2.226562 6.546875 -2.535156 6.640625 -2.890625 C 6.742188 -3.242188 6.796875 -3.632812 6.796875 -4.0625 Z M 6.796875 -10.96875 L 8.265625 -10.96875 L 8.265625 0 L 6.796875 0 L 7.0625 -1.578125 L 7.09375 -1.5625 C 7.113281 -1.226562 7.015625 -0.953125 6.796875 -0.734375 C 6.578125 -0.523438 6.335938 -0.351562 6.078125 -0.21875 C 5.816406 -0.0820312 5.550781 0.0195312 5.28125 0.09375 C 5.007812 0.164062 4.738281 0.203125 4.46875 0.203125 C 3.820312 0.203125 3.265625 0.09375 2.796875 -0.125 C 2.335938 -0.351562 1.957031 -0.65625 1.65625 -1.03125 C 1.363281 -1.414062 1.148438 -1.863281 1.015625 -2.375 C 0.878906 -2.894531 0.8125 -3.441406 0.8125 -4.015625 C 0.8125 -4.566406 0.878906 -5.097656 1.015625 -5.609375 C 1.160156 -6.117188 1.378906 -6.566406 1.671875 -6.953125 C 1.972656 -7.347656 2.351562 -7.664062 2.8125 -7.90625 C 3.269531 -8.144531 3.8125 -8.265625 4.4375 -8.265625 C 5 -8.265625 5.546875 -8.132812 6.078125 -7.875 C 6.609375 -7.613281 6.867188 -7.445312 6.859375 -7.375 Z M 6.796875 -10.96875 "/>
</g>
</g>
<clipPath id="clip-0">
<path clip-rule="nonzero" d="M 59.039062 59.039062 L 221.757812 59.039062 L 221.757812 286.558594 L 59.039062 286.558594 Z M 59.039062 59.039062 "/>
</clipPath>
<clipPath id="clip-1">
<path clip-rule="nonzero" d="M 311.039062 59.039062 L 473.757812 59.039062 L 473.757812 286.558594 L 311.039062 286.558594 Z M 311.039062 59.039062 "/>
</clipPath>
</defs>
<rect x="-50.4" y="-36" width="604.8" height="432" fill="rgb(100%, 100%, 100%)" fill-opacity="1"/>
<g clip-path="url(#clip-0)">
<path fill-rule="nonzero" fill="rgb(100%, 100%, 100%)" fill-opacity="1" stroke-width="0.75" stroke-linecap="round" stroke-linejoin="round" stroke="rgb(100%, 100%, 100%)" stroke-opacity="1" stroke-miterlimit="10" d="M 59.039062 286.558594 L 221.757812 286.558594 L 221.757812 59.039062 L 59.039062 59.039062 Z M 59.039062 286.558594 "/>
</g>
<g fill="rgb(0%, 0%, 0%)" fill-opacity="1">
<use xlink:href="#glyph-0-1" x="124.398438" y="34.107422"/>
<use xlink:href="#glyph-0-2" x="134.398438" y="34.107422"/>
<use xlink:href="#glyph-0-3" x="143.398438" y="34.107422"/>
</g>
<path fill-rule="evenodd" fill="rgb(84.313725%, 44.705882%, 17.254902%)" fill-opacity="1" stroke-width="0.75" stroke-linecap="round" stroke-linejoin="round" stroke="rgb(0%, 0%, 0%)" stroke-opacity="1" stroke-miterlimit="10" d="M 65.066406 248.132812 L 215.734375 248.132812 L 215.734375 97.464844 L 65.066406 97.464844 Z M 80.132812 233.066406 L 80.132812 127.601562 L 110.265625 127.601562 L 110.265625 233.066406 Z M 110.265625 233.066406 L 110.265625 127.601562 L 140.398438 127.601562 L 140.398438 233.066406 Z M 110.265625 233.066406 "/>
<g clip-path="url(#clip-1)">
<path fill-rule="evenodd" fill="rgb(100%, 100%, 100%)" fill-opacity="1" stroke-width="0.75" stroke-linecap="round" stroke-linejoin="round" stroke="rgb(100%, 100%, 100%)" stroke-opacity="1" stroke-miterlimit="10" d="M 311.039062 286.558594 L 473.757812 286.558594 L 473.757812 59.039062 L 311.039062 59.039062 Z M 311.039062 286.558594 "/>
</g>
<g fill="rgb(0%, 0%, 0%)" fill-opacity="1">
<use xlink:href="#glyph-0-1" x="362.398438" y="34.107422"/>
<use xlink:href="#glyph-0-4" x="372.398438" y="34.107422"/>
<use xlink:href="#glyph-0-5" x="380.398438" y="34.107422"/>
<use xlink:href="#glyph-0-6" x="389.398438" y="34.107422"/>
<use xlink:href="#glyph-0-7" x="397.398438" y="34.107422"/>
<use xlink:href="#glyph-0-8" x="400.398438" y="34.107422"/>
<use xlink:href="#glyph-0-4" x="405.398438" y="34.107422"/>
<use xlink:href="#glyph-0-9" x="413.398438" y="34.107422"/>
</g>
<path fill-rule="evenodd" fill="rgb(84.313725%, 44.705882%, 17.254902%)" fill-opacity="1" stroke-width="0.75" stroke-linecap="round" stroke-linejoin="round" stroke="rgb(0%, 0%, 0%)" stroke-opacity="1" stroke-miterlimit="10" d="M 317.066406 248.132812 L 467.734375 248.132812 L 467.734375 97.464844 L 317.066406 97.464844 Z M 332.132812 233.066406 L 332.132812 127.601562 L 392.398438 127.601562 L 392.398438 233.066406 Z M 332.132812 233.066406 "/>
</svg>
